\relax 
\providecommand\hyper@newdestlabel[2]{}
\providecommand\HyperFirstAtBeginDocument{\AtBeginDocument}
\HyperFirstAtBeginDocument{\ifx\hyper@anchor\@undefined
\global\let\oldcontentsline\contentsline
\gdef\contentsline#1#2#3#4{\oldcontentsline{#1}{#2}{#3}}
\global\let\oldnewlabel\newlabel
\gdef\newlabel#1#2{\newlabelxx{#1}#2}
\gdef\newlabelxx#1#2#3#4#5#6{\oldnewlabel{#1}{{#2}{#3}}}
\AtEndDocument{\ifx\hyper@anchor\@undefined
\let\contentsline\oldcontentsline
\let\newlabel\oldnewlabel
\fi}
\fi}
\global\let\hyper@last\relax 
\gdef\HyperFirstAtBeginDocument#1{#1}
\providecommand\HyField@AuxAddToFields[1]{}
\providecommand\HyField@AuxAddToCoFields[2]{}
\citation{1,2,3,4}
\citation{5}
\citation{4,6,7}
\citation{8,9}
\citation{1,10,11}
\@writefile{toc}{\contentsline {section}{\numberline {1}Introduction}{1}{section.1}\protected@file@percent }
\citation{4,7,8}
\citation{12,13}
\citation{14}
\citation{15,16,17}
\citation{16,17}
\citation{18}
\citation{4,7,9}
\citation{4,7}
\@writefile{toc}{\contentsline {section}{\numberline {2}Background}{3}{section.2}\protected@file@percent }
\@writefile{toc}{\contentsline {subsection}{\numberline {2.1}Mobile crowdsourced test reports}{3}{subsection.2.1}\protected@file@percent }
\@writefile{toc}{\contentsline {subsection}{\numberline {2.2}Motivation}{3}{subsection.2.2}\protected@file@percent }
\@writefile{toc}{\contentsline {subsubsection}{\numberline {2.2.1}\it  Image tells more}{3}{subsubsection.2.2.1}\protected@file@percent }
\citation{4}
\citation{19}
\citation{20}
\citation{21}
\@writefile{lot}{\contentsline {table}{\numberline {1}{\ignorespaces Example of a pair of test reports (Project: MyListening)\relax }}{4}{table.caption.1}\protected@file@percent }
\providecommand*\caption@xref[2]{\@setref\relax\@undefined{#1}}
\newlabel{tab1}{{1}{4}{Example of a pair of test reports (Project: MyListening)\relax }{table.caption.1}{}}
\@writefile{toc}{\contentsline {subsubsection}{\numberline {2.2.2}\it  Sampling strategy}{4}{subsubsection.2.2.2}\protected@file@percent }
\citation{22,23}
\citation{24,25}
\citation{26}
\citation{27}
\citation{28}
\@writefile{toc}{\contentsline {section}{\numberline {3}Approach}{5}{section.3}\protected@file@percent }
\@writefile{lof}{\contentsline {figure}{\numberline {1}{\ignorespaces Technical framework of CTRP\relax }}{5}{figure.caption.2}\protected@file@percent }
\newlabel{fig1}{{1}{5}{Technical framework of CTRP\relax }{figure.caption.2}{}}
\@writefile{toc}{\contentsline {subsection}{\numberline {3.1}Feature extraction}{5}{subsection.3.1}\protected@file@percent }
\citation{29,30,31}
\citation{30,31}
\citation{30}
\newlabel{equ1}{{1}{6}{Feature extraction}{equation.3.1}{}}
\@writefile{toc}{\contentsline {subsection}{\numberline {3.2}Building hash table}{6}{subsection.3.2}\protected@file@percent }
\newlabel{equ2}{{2}{6}{Building hash table}{equation.3.2}{}}
\newlabel{equ3}{{3}{6}{Building hash table}{equation.3.3}{}}
\citation{21}
\newlabel{equ4}{{4}{7}{Building hash table}{equation.3.4}{}}
\@writefile{toc}{\contentsline {subsection}{\numberline {3.3}Prioritization strategy}{7}{subsection.3.3}\protected@file@percent }
\newlabel{equ5}{{5}{7}{Prioritization strategy}{equation.3.5}{}}
\@writefile{toc}{\contentsline {section}{\numberline {4}Experiments}{7}{section.4}\protected@file@percent }
\@writefile{toc}{\contentsline {subsection}{\numberline {4.1}Research questions}{7}{subsection.4.1}\protected@file@percent }
\@writefile{loa}{\contentsline {algorithm}{\numberline {1}{\ignorespaces Prioritization$(R, R^*)$\relax }}{8}{algorithm.1}\protected@file@percent }
\@writefile{toc}{\contentsline {subsection}{\numberline {4.2}Data collection}{8}{subsection.4.2}\protected@file@percent }
\citation{4}
\citation{7}
\citation{9}
\citation{33}
\citation{35}
\@writefile{lot}{\contentsline {table}{\numberline {2}{\ignorespaces Statistical information of the experimental subjects\relax }}{9}{table.caption.3}\protected@file@percent }
\newlabel{tab2}{{2}{9}{Statistical information of the experimental subjects\relax }{table.caption.3}{}}
\@writefile{toc}{\contentsline {subsection}{\numberline {4.3}Baseline setting}{9}{subsection.4.3}\protected@file@percent }
\@writefile{toc}{\contentsline {subsection}{\numberline {4.4}Evaluation}{9}{subsection.4.4}\protected@file@percent }
\newlabel{equ6}{{6}{9}{Evaluation}{equation.4.6}{}}
\citation{34}
\citation{36}
\citation{37}
\newlabel{equ7}{{7}{10}{Evaluation}{equation.4.7}{}}
\@writefile{toc}{\contentsline {subsection}{\numberline {4.5}Parameter setting}{10}{subsection.4.5}\protected@file@percent }
\@writefile{toc}{\contentsline {section}{\numberline {5}Results analysis}{10}{section.5}\protected@file@percent }
\@writefile{toc}{\contentsline {subsection}{\numberline {5.1}Answering research question 1}{10}{subsection.5.1}\protected@file@percent }
\@writefile{lot}{\contentsline {table}{\numberline {3}{\ignorespaces APFD scores on the experimental subjects\relax }}{11}{table.caption.4}\protected@file@percent }
\newlabel{tab3}{{3}{11}{APFD scores on the experimental subjects\relax }{table.caption.4}{}}
\@writefile{lof}{\contentsline {figure}{\numberline {2}{\ignorespaces Scott-Knott test on APFD scores\relax }}{12}{figure.caption.5}\protected@file@percent }
\newlabel{fig2}{{2}{12}{Scott-Knott test on APFD scores\relax }{figure.caption.5}{}}
\@writefile{lof}{\contentsline {figure}{\numberline {3}{\ignorespaces Linear interpolation(average number of inspected test reports)\relax }}{13}{figure.caption.6}\protected@file@percent }
\newlabel{fig3}{{3}{13}{Linear interpolation(average number of inspected test reports)\relax }{figure.caption.6}{}}
\@writefile{toc}{\contentsline {subsection}{\numberline {5.2}Answering research question 2}{13}{subsection.5.2}\protected@file@percent }
\@writefile{lot}{\contentsline {table}{\numberline {4}{\ignorespaces APFD scores on experimental subjects considering bug severity\relax }}{14}{table.caption.7}\protected@file@percent }
\newlabel{tab4}{{4}{14}{APFD scores on experimental subjects considering bug severity\relax }{table.caption.7}{}}
\citation{31}
\@writefile{lot}{\contentsline {table}{\numberline {5}{\ignorespaces MAE of experimental subjects\relax }}{15}{table.caption.8}\protected@file@percent }
\newlabel{tab5}{{5}{15}{MAE of experimental subjects\relax }{table.caption.8}{}}
\@writefile{toc}{\contentsline {subsection}{\numberline {5.3}Answering research question 3}{15}{subsection.5.3}\protected@file@percent }
\@writefile{lot}{\contentsline {table}{\numberline {6}{\ignorespaces The comparison of APFD mean value over 30 executions under different settings of $k$($r$=0.7)\relax }}{16}{table.caption.9}\protected@file@percent }
\newlabel{tab6}{{6}{16}{The comparison of APFD mean value over 30 executions under different settings of $k$($r$=0.7)\relax }{table.caption.9}{}}
\@writefile{lof}{\contentsline {figure}{\numberline {4}{\ignorespaces The sensitivity of APFD to the parameter $k$($r$=0.7)\relax }}{16}{figure.caption.10}\protected@file@percent }
\newlabel{fig4}{{4}{16}{The sensitivity of APFD to the parameter $k$($r$=0.7)\relax }{figure.caption.10}{}}
\citation{38}
\@writefile{lot}{\contentsline {table}{\numberline {7}{\ignorespaces The comparison of MAE mean value over 30 executions under different settings of $k$($r$=0.7)\relax }}{17}{table.caption.11}\protected@file@percent }
\newlabel{tab7}{{7}{17}{The comparison of MAE mean value over 30 executions under different settings of $k$($r$=0.7)\relax }{table.caption.11}{}}
\@writefile{lof}{\contentsline {figure}{\numberline {5}{\ignorespaces The sensitivity of MAE to the parameter $k$($r$=0.7)\relax }}{17}{figure.caption.12}\protected@file@percent }
\newlabel{fig5}{{5}{17}{The sensitivity of MAE to the parameter $k$($r$=0.7)\relax }{figure.caption.12}{}}
\@writefile{toc}{\contentsline {subsection}{\numberline {5.4}Threats to validity}{17}{subsection.5.4}\protected@file@percent }
\@writefile{lot}{\contentsline {table}{\numberline {8}{\ignorespaces The comparison of APFD mean value over 30 executions under different settings of $r$($k$=23)\relax }}{18}{table.caption.13}\protected@file@percent }
\newlabel{tab8}{{8}{18}{The comparison of APFD mean value over 30 executions under different settings of $r$($k$=23)\relax }{table.caption.13}{}}
\@writefile{lof}{\contentsline {figure}{\numberline {6}{\ignorespaces The sensitivity of APFD to the parameter $r$($k$=23)\relax }}{18}{figure.caption.14}\protected@file@percent }
\newlabel{fig6}{{6}{18}{The sensitivity of APFD to the parameter $r$($k$=23)\relax }{figure.caption.14}{}}
\@writefile{lot}{\contentsline {table}{\numberline {9}{\ignorespaces The comparison of MAE mean value over 30 executions under different settings of $r$($k$=23)\relax }}{18}{table.caption.15}\protected@file@percent }
\newlabel{tab9}{{9}{18}{The comparison of MAE mean value over 30 executions under different settings of $r$($k$=23)\relax }{table.caption.15}{}}
\citation{39,40}
\citation{24,41,42,43}
\citation{44,45}
\citation{39}
\citation{40}
\citation{42}
\citation{44}
\citation{45}
\citation{10}
\citation{7}
\citation{32}
\citation{4}
\@writefile{lof}{\contentsline {figure}{\numberline {7}{\ignorespaces The sensitivity of MAE to the parameter $r$($k$=23)\relax }}{19}{figure.caption.16}\protected@file@percent }
\newlabel{fig7}{{7}{19}{The sensitivity of MAE to the parameter $r$($k$=23)\relax }{figure.caption.16}{}}
\@writefile{toc}{\contentsline {section}{\numberline {6}Related works}{19}{section.6}\protected@file@percent }
\@writefile{toc}{\contentsline {subsection}{\numberline {6.1}Duplicate report detection}{19}{subsection.6.1}\protected@file@percent }
\@writefile{toc}{\contentsline {subsection}{\numberline {6.2}Bug report clustering}{19}{subsection.6.2}\protected@file@percent }
\citation{46}
\citation{47}
\citation{8}
\citation{48}
\citation{49}
\citation{50}
\bibcite{1}{1}
\bibcite{2}{2}
\bibcite{3}{3}
\@writefile{toc}{\contentsline {subsection}{\numberline {6.3}Bug report prioritization}{20}{subsection.6.3}\protected@file@percent }
\@writefile{toc}{\contentsline {subsection}{\numberline {6.4}Bug severity assessment}{20}{subsection.6.4}\protected@file@percent }
\@writefile{toc}{\contentsline {section}{\numberline {7}Conclusion}{20}{section.7}\protected@file@percent }
\bibcite{4}{4}
\bibcite{5}{5}
\bibcite{6}{6}
\bibcite{7}{7}
\bibcite{8}{8}
\bibcite{9}{9}
\bibcite{10}{10}
\bibcite{11}{11}
\bibcite{12}{12}
\bibcite{13}{13}
\bibcite{14}{14}
\bibcite{15}{15}
\bibcite{16}{16}
\bibcite{17}{17}
\bibcite{18}{18}
\bibcite{19}{19}
\bibcite{20}{20}
\bibcite{21}{21}
\bibcite{22}{22}
\bibcite{23}{23}
\bibcite{24}{24}
\bibcite{25}{25}
\bibcite{26}{26}
\bibcite{27}{27}
\bibcite{28}{28}
\bibcite{29}{29}
\bibcite{30}{30}
\bibcite{31}{31}
\bibcite{32}{32}
\bibcite{33}{33}
\bibcite{34}{34}
\bibcite{35}{35}
\bibcite{36}{36}
\bibcite{37}{37}
\bibcite{38}{38}
\bibcite{39}{39}
\bibcite{40}{40}
\bibcite{41}{41}
\bibcite{42}{42}
\bibcite{43}{43}
\bibcite{44}{44}
\bibcite{45}{45}
\bibcite{46}{46}
\bibcite{47}{47}
\bibcite{48}{48}
\bibcite{49}{49}
\bibcite{50}{50}
\newlabel{LastPage}{{}{22}{}{page.22}{}}
\xdef\lastpage@lastpage{22}
\xdef\lastpage@lastpageHy{22}
